Wikipedia Daily Page Views — wikipedia_pageviews • certetoolbox
…
platform
defaults to "all-access". More reliable for epidemic trends might be "mobile-web".

agent
defaults to "all-agents"

    Details

    See example: https://pageviews.wmcloud.org/?project=nl.wikipedia.org&platform=all-access&agent=all-agents&redirects=0&start=2024-06-01&end=2025-02-01&pages=Griep|Influenzavirus_A

    Examples

wikipedia_pageviews("Griep")
#> # A tibble: 212 × 3
#>    article date       views
#>    <chr>   <date>     <int>
#>  1 Griep   2024-12-01    98
#>  2 Griep   2024-12-02    83
#>  3 Griep   2024-12-03    91
#>  4 Griep   2024-12-04    98
#>  5 Griep   2024-12-05    83
#>  6 Griep   2024-12-06    77
#>  7 Griep   2024-12-07    75
#>  8 Griep   2024-12-08    87
#>  9 Griep   2024-12-09   105
#> 10 Griep   2024-12-10   112
#> # ℹ 202 more rows
…
